…
```r
select(homerange,class)
```

```
## # A tibble: 569 × 1
##    class         
##    <chr>         
##  1 actinopterygii
##  2 actinopterygii
##  3 actinopterygii
##  4 actinopterygii
##  5 actinopterygii
##  6 actinopterygii
##  7 actinopterygii
##  8 actinopterygii
##  9 actinopterygii
## 10 actinopterygii
## # … with 559 more rows
```
…
**4. What taxa are represented in the `homerange` data frame? Make a new data frame `taxa` that is restricted to taxon, common name, class, order, family, genus, species.**  


```r
taxa<- select(homerange, "taxon", "common.name", "class", "order", "family", "genus", "species")
taxa
```

```
## # A tibble: 569 × 7
##    taxon         common.name             class   order   family   genus  species
##    <fct>         <chr>                   <chr>   <fct>   <chr>    <chr>  <chr>  
##  1 lake fishes   american eel            actino… anguil… anguill… angui… rostra…
##  2 river fishes  blacktail redhorse      actino… cyprin… catosto… moxos… poecil…
##  3 river fishes  central stoneroller     actino… cyprin… cyprini… campo… anomal…
##  4 river fishes  rosyside dace           actino… cyprin… cyprini… clino… fundul…
##  5 river fishes  longnose dace           actino… cyprin… cyprini… rhini… catara…
##  6 river fishes  muskellunge             actino… esocif… esocidae esox   masqui…
##  7 marine fishes pollack                 actino… gadifo… gadidae  polla… pollac…
##  8 marine fishes saithe                  actino… gadifo… gadidae  polla… virens 
##  9 marine fishes lined surgeonfish       actino… percif… acanthu… acant… lineat…
## 10 marine fishes orangespine unicornfish actino… percif… acanthu… naso   litura…
## # … with 559 more rows
```
…
**7. Make two new data frames, one which is restricted to carnivores and another that is restricted to herbivores.**  


```r
carnivores <-filter(homerange, trophic.guild=="carnivore")
carnivores
```

```
## # A tibble: 342 × 24
##    taxon   common.name   class   order  family genus species primarymethod N    
##    <fct>   <chr>         <chr>   <fct>  <chr>  <chr> <chr>   <chr>         <chr>
##  1 lake f… american eel  actino… angui… angui… angu… rostra… telemetry     16   
##  2 river … blacktail re… actino… cypri… catos… moxo… poecil… mark-recaptu… <NA> 
##  3 river … central ston… actino… cypri… cypri… camp… anomal… mark-recaptu… 20   
##  4 river … rosyside dace actino… cypri… cypri… clin… fundul… mark-recaptu… 26   
##  5 river … longnose dace actino… cypri… cypri… rhin… catara… mark-recaptu… 17   
##  6 river … muskellunge   actino… esoci… esoci… esox  masqui… telemetry     5    
##  7 marine… pollack       actino… gadif… gadid… poll… pollac… telemetry     2    
##  8 marine… saithe        actino… gadif… gadid… poll… virens  telemetry     2    
##  9 marine… giant treval… actino… perci… caran… cara… ignobi… telemetry     4    
## 10 lake f… rock bass     actino… perci… centr… ambl… rupest… mark-recaptu… 16   
## # … with 332 more rows, and 15 more variables: mean.mass.g <dbl>,
## #   log10.mass <dbl>, alternative.mass.reference <chr>, mean.hra.m2 <dbl>,
## #   log10.hra <dbl>, hra.reference <chr>, realm <chr>, thermoregulation <chr>,
## #   locomotion <chr>, trophic.guild <chr>, dimension <dbl>, preymass <dbl>,
## #   log10.preymass <dbl>, PPMR <dbl>, prey.size.reference <chr>
```

```r
herbivores <-filter(homerange, trophic.guild=="herbivore")
herbivores
```

```
## # A tibble: 227 × 24
##    taxon  common.name   class   order  family  genus species primarymethod N    
##    <fct>  <chr>         <chr>   <fct>  <chr>   <chr> <chr>   <chr>         <chr>
##  1 marin… lined surgeo… actino… perci… acanth… acan… lineat… direct obser… <NA> 
##  2 marin… orangespine … actino… perci… acanth… naso  litura… telemetry     8    
##  3 marin… bluespine un… actino… perci… acanth… naso  unicor… telemetry     7    
##  4 marin… redlip blenny actino… perci… blenni… ophi… atlant… direct obser… 20   
##  5 marin… bermuda chub  actino… perci… kyphos… kyph… sectat… telemetry     11   
##  6 marin… cherubfish    actino… perci… pomaca… cent… argi    direct obser… <NA> 
##  7 marin… damselfish    actino… perci… pomace… chro… chromis direct obser… <NA> 
##  8 marin… twinspot dam… actino… perci… pomace… chry… biocel… direct obser… 18   
##  9 marin… wards damsel  actino… perci… pomace… poma… wardi   direct obser… <NA> 
## 10 marin… australian g… actino… perci… pomace… steg… apical… direct obser… <NA> 
## # … with 217 more rows, and 15 more variables: mean.mass.g <dbl>,
## #   log10.mass <dbl>, alternative.mass.reference <chr>, mean.hra.m2 <dbl>,
## #   log10.hra <dbl>, hra.reference <chr>, realm <chr>, thermoregulation <chr>,
## #   locomotion <chr>, trophic.guild <chr>, dimension <dbl>, preymass <dbl>,
## #   log10.preymass <dbl>, PPMR <dbl>, prey.size.reference <chr>
```
…
```r
snake <-filter(homerange,taxon=="snakes")
snake<-select(snake,"common.name","species","genus","mean.hra.m2","trophic.guild")
snake
```

```
## # A tibble: 41 × 5
##    common.name           species              genus    mean.hra.m2 trophic.guild
##    <chr>                 <chr>                <chr>          <dbl> <chr>        
##  1 western worm snake    vermis               carphop…         700 carnivore    
##  2 eastern worm snake    viridis              carphop…         253 carnivore    
##  3 racer                 constrictor          coluber       151000 carnivore    
##  4 yellow bellied racer  constrictor flavive… coluber       114500 carnivore    
##  5 ringneck snake        punctatus            diadoph…        6476 carnivore    
##  6 eastern indigo snake  couperi              drymarc…     1853000 carnivore    
##  7 great plains ratsnake guttata emoryi       elaphe        150600 carnivore    
##  8 western ratsnake      obsoleta             elaphe         46000 carnivore    
##  9 hognose snake         platirhinos          heterod…      516375 carnivore    
## 10 European whipsnake    viridiflavus         hieroph…      110900 carnivore    
## # … with 31 more rows
```
…
