…
```
##  [1] "name"       "Gender"     "Eye color"  "Race"       "Hair color"
##  [6] "Height"     "Publisher"  "Skin color" "Alignment"  "Weight"
```

```r
superhero_info <- rename(superhero_info, gender="Gender", eye_color="Eye color",race="Race",hair_color="Hair color", height="Height", publisher="Publisher", skin_color="Skin color", alignment="Alignment", weight="Weight")
superhero_info
```

```
## # A tibble: 734 × 10
##    name  gender eye_color race  hair_color height publisher skin_color alignment
##    <chr> <chr>  <chr>     <chr> <chr>       <dbl> <chr>     <chr>      <chr>    
##  1 A-Bo… Male   yellow    Human No Hair       203 Marvel C… <NA>       good     
##  2 Abe … Male   blue      Icth… No Hair       191 Dark Hor… blue       good     
##  3 Abin… Male   blue      Unga… No Hair       185 DC Comics red        good     
##  4 Abom… Male   green     Huma… No Hair       203 Marvel C… <NA>       bad      
##  5 Abra… Male   blue      Cosm… Black          NA Marvel C… <NA>       bad      
##  6 Abso… Male   blue      Human No Hair       193 Marvel C… <NA>       bad      
##  7 Adam… Male   blue      <NA>  Blond          NA NBC - He… <NA>       good     
##  8 Adam… Male   blue      Human Blond         185 DC Comics <NA>       good     
##  9 Agen… Female blue      <NA>  Blond         173 Marvel C… <NA>       good     
## 10 Agen… Male   brown     Human Brown         178 Marvel C… <NA>       good     
## # … with 724 more rows, and 1 more variable: weight <dbl>
```
…
```
## The following objects are masked from 'package:stats':
## 
##     chisq.test, fisher.test
```

The `clean_names` function takes care of everything in one line! Now that's a superpower!

```r
superhero_powers <- janitor::clean_names(superhero_powers)
superhero_powers
```

```
## # A tibble: 667 × 168
##    hero_names    agility accelerated_healing lantern_power_ring dimensional_awa…
##    <chr>         <lgl>   <lgl>               <lgl>              <lgl>           
##  1 3-D Man       TRUE    FALSE               FALSE              FALSE           
##  2 A-Bomb        FALSE   TRUE                FALSE              FALSE           
##  3 Abe Sapien    TRUE    TRUE                FALSE              FALSE           
##  4 Abin Sur      FALSE   FALSE               TRUE               FALSE           
##  5 Abomination   FALSE   TRUE                FALSE              FALSE           
##  6 Abraxas       FALSE   FALSE               FALSE              TRUE            
##  7 Absorbing Man FALSE   FALSE               FALSE              FALSE           
##  8 Adam Monroe   FALSE   TRUE                FALSE              FALSE           
##  9 Adam Strange  FALSE   FALSE               FALSE              FALSE           
## 10 Agent Bob     FALSE   FALSE               FALSE              FALSE           
## # … with 657 more rows, and 163 more variables: cold_resistance <lgl>,
## #   durability <lgl>, stealth <lgl>, energy_absorption <lgl>, flight <lgl>,
## #   danger_sense <lgl>, underwater_breathing <lgl>, marksmanship <lgl>,
## #   weapons_master <lgl>, power_augmentation <lgl>, animal_attributes <lgl>,
## #   longevity <lgl>, intelligence <lgl>, super_strength <lgl>,
## #   cryokinesis <lgl>, telepathy <lgl>, energy_armor <lgl>,
## #   energy_blasts <lgl>, duplication <lgl>, size_changing <lgl>, …
```
…
2. Notice that we have some neutral superheros! Who are they?

```r
superhero_info%>%
  filter(alignment=="neutral")%>%
  select(name,alignment)
```

```
## # A tibble: 24 × 2
##    name         alignment
##    <chr>        <chr>    
##  1 Bizarro      neutral  
##  2 Black Flash  neutral  
##  3 Captain Cold neutral  
##  4 Copycat      neutral  
##  5 Deadpool     neutral  
##  6 Deathstroke  neutral  
##  7 Etrigan      neutral  
##  8 Galactus     neutral  
##  9 Gladiator    neutral  
## 10 Indigo       neutral  
## # … with 14 more rows
```

## `superhero_info`
3. Let's say we are only interested in the variables name, alignment, and "race". How would you isolate these variables from `superhero_info`?

```r
superhero_info%>%
  select(name, alignment,race)
```

```
## # A tibble: 734 × 3
##    name          alignment race             
##    <chr>         <chr>     <chr>            
##  1 A-Bomb        good      Human            
##  2 Abe Sapien    good      Icthyo Sapien    
##  3 Abin Sur      good      Ungaran          
##  4 Abomination   bad       Human / Radiation
##  5 Abraxas       bad       Cosmic Entity    
##  6 Absorbing Man bad       Human            
##  7 Adam Monroe   good      <NA>             
##  8 Adam Strange  good      Human            
##  9 Agent 13      good      <NA>             
## 10 Agent Bob     good      Human            
## # … with 724 more rows
```

## Not Human
4. List all of the superheros that are not human.

```r
superhero_info%>%
  select(name,race)%>%
  filter(race!="Human")
```

```
## # A tibble: 222 × 2
##    name         race             
##    <chr>        <chr>            
##  1 Abe Sapien   Icthyo Sapien    
##  2 Abin Sur     Ungaran          
##  3 Abomination  Human / Radiation
##  4 Abraxas      Cosmic Entity    
##  5 Ajax         Cyborg           
##  6 Alien        Xenomorph XX121  
##  7 Amazo        Android          
##  8 Angel        Vampire          
##  9 Angel Dust   Mutant           
## 10 Anti-Monitor God / Eternal    
## # … with 212 more rows
```
…
9. OK, so are there more good guys or bad guys that are bald (personal interest)?

```r
good_guys%>%
  select(hair_color)%>%
  filter(hair_color=="No Hair")
```

```
## # A tibble: 37 × 1
##    hair_color
##    <chr>     
##  1 No Hair   
##  2 No Hair   
##  3 No Hair   
##  4 No Hair   
##  5 No Hair   
##  6 No Hair   
##  7 No Hair   
##  8 No Hair   
##  9 No Hair   
## 10 No Hair   
## # … with 27 more rows
```

```r
bad_guys%>%
  select(hair_color)%>%
  filter(hair_color=="No Hair")
```

```
## # A tibble: 35 × 1
##    hair_color
##    <chr>     
##  1 No Hair   
##  2 No Hair   
##  3 No Hair   
##  4 No Hair   
##  5 No Hair   
##  6 No Hair   
##  7 No Hair   
##  8 No Hair   
##  9 No Hair   
## 10 No Hair   
## # … with 25 more rows
```


10. Let's explore who the really "big" superheros are. In the `superhero_info` data, which have a height over 200 or weight greater than or equal to 450?

```r
superhero_info%>%
  filter(height>200|weight>=450)
```

```
## # A tibble: 60 × 10
##    name  gender eye_color race  hair_color height publisher skin_color alignment
##    <chr> <chr>  <chr>     <chr> <chr>       <dbl> <chr>     <chr>      <chr>    
##  1 A-Bo… Male   yellow    Human No Hair       203 Marvel C… <NA>       good     
##  2 Abom… Male   green     Huma… No Hair       203 Marvel C… <NA>       bad      
##  3 Alien Male   <NA>      Xeno… No Hair       244 Dark Hor… black      bad      
##  4 Amazo Male   red       Andr… <NA>          257 DC Comics <NA>       bad      
##  5 Ant-… Male   blue      Human Blond         211 Marvel C… <NA>       good     
##  6 Anti… Male   blue      Symb… Blond         229 Marvel C… <NA>       <NA>     
##  7 Apoc… Male   red       Muta… Black         213 Marvel C… grey       bad      
##  8 Bane  Male   <NA>      Human <NA>          203 DC Comics <NA>       bad      
##  9 Beta… Male   <NA>      <NA>  No Hair       201 Marvel C… <NA>       good     
## 10 Bloo… Female blue      Human Brown         218 Marvel C… <NA>       bad      
## # … with 50 more rows, and 1 more variable: weight <dbl>
```
…
```r
superhero_info%>%
  mutate(height_weight_ratio= height/weight)%>%
  arrange(desc(height_weight_ratio))
```

```
## # A tibble: 734 × 11
##    name  gender eye_color race  hair_color height publisher skin_color alignment
##    <chr> <chr>  <chr>     <chr> <chr>       <dbl> <chr>     <chr>      <chr>    
##  1 Groot Male   yellow    Flor… <NA>          701 Marvel C… <NA>       good     
##  2 Gala… Male   black     Cosm… Black         876 Marvel C… <NA>       neutral  
##  3 Fin … Male   red       Kaka… No Hair       975 Marvel C… green      good     
##  4 Long… Male   blue      Human Blond         188 Marvel C… <NA>       good     
##  5 Jack… Male   blue      Human Brown          71 Dark Hor… <NA>       good     
##  6 Rock… Male   brown     Anim… Brown         122 Marvel C… <NA>       good     
##  7 Dash  Male   blue      Human Blond         122 Dark Hor… <NA>       good     
##  8 Howa… Male   brown     <NA>  Yellow         79 Marvel C… <NA>       good     
##  9 Swarm Male   yellow    Muta… No Hair       196 Marvel C… yellow     bad      
## 10 Yoda  Male   brown     Yoda… White          66 George L… green      good     
## # … with 724 more rows, and 2 more variables: weight <dbl>,
## #   height_weight_ratio <dbl>
```
…
14. How many superheros have a combination of accelerated healing, durability, and super strength?

```r
superhero_powers%>%
  filter(accelerated_healing=="TRUE"&durability=="TRUE"& super_strength=="TRUE")%>%
  select(hero_names,accelerated_healing,durability,super_strength)
```

```
## # A tibble: 97 × 4
##    hero_names   accelerated_healing durability super_strength
##    <chr>        <lgl>               <lgl>      <lgl>         
##  1 A-Bomb       TRUE                TRUE       TRUE          
##  2 Abe Sapien   TRUE                TRUE       TRUE          
##  3 Angel        TRUE                TRUE       TRUE          
##  4 Anti-Monitor TRUE                TRUE       TRUE          
##  5 Anti-Venom   TRUE                TRUE       TRUE          
##  6 Aquaman      TRUE                TRUE       TRUE          
##  7 Arachne      TRUE                TRUE       TRUE          
##  8 Archangel    TRUE                TRUE       TRUE          
##  9 Ardina       TRUE                TRUE       TRUE          
## 10 Ares         TRUE                TRUE       TRUE          
## # … with 87 more rows
```
…
